doc/rtd157-274-3.vcd
$timescale 1us $end
$var wire 1 ! RX $end
$enddefinitions $end
#0
0!
#1763717
1!
#1763770
0!
#1763948
1!
#1764311
0!
#1764337
1!
#1764441
0!
#1764597
1!
#1765324
0!
#1765376
1!
#1765558
0!
#1765585
1!
#1765688
0!
#1765791
1!
#1765972
0!
#1765998
1!
#1766388
0!
#1766544
1!
#1766649
0!
#1766752
1!
#1767064
0!
#1767221
1!
#1767352
0!
#1767510
1!
#1767615
0!
#1767721
1!
#1767878
0!
#1767957
1!
#1768218
0!
#1768297
1!
#1769187
0!
#1769265
1!
#1769708
0!
#1769760
1!
#1770020
0!
#1770099
1!
#1770489
0!
#1770594
1!
#1770646
0!
#1770723
1!
#1771008
0!
#1771112
1!
#1772105
0!
#1772237
1!
#1772892
0!
#1772971
1!
#1773128
0!
#1773154
1!
#1773338
0!
#1773417
1!
#1773602
0!
#1773680
1!
#1774701
0!
#1774728
1!
#1774884
0!
#1774936
1!
#1775770
0!
#1775796
1!
#1776006
0!
#1776082
1!
#1776740
0!
#1776792
1!
#1777369
0!
#1777603
1!
#1777734
0!
#1777811
1!
#1778305
0!
#1778384
1!
#1778436
0!
#1778514
1!
#1779248
0!
#1779274
1!
#1779825
0!
#1780007
1!
#1780137
0!
#1780162
1!
#1780449
0!
#1780554
1!
#1780869
0!
#1780895
1!
#1781499
0!
#1781656
1!
#1781787
0!
#1781918
1!
#1782023
0!
#1782049
1!
#1782365
0!
#1782496
1!
#1782575
0!
#1782811
1!
#1783179
0!
#1783257
1!
#1783389
0!
#1783415
1!
#1783674
0!
#1783751
1!
#1784062
0!
#1784193
1!
#1784551
0!
#1785099
1!
#1785747
0!
#1785942
1!
#1786168
0!
#1786760
1!
#1787001
0!
#1787582
1!
#1787818
0!
#1788421
1!
#1789074
0!
#1789256
1!
#1789489
0!
#1790088
1!
#1790322
0!
#1790919
1!
#1791570
0!
#1791752
1!
#1791988
0!
#1792595
1!
#1792828
0!
#1793430
1!
#1793663
0!
#1794259
1!
#1794494
0!
#1795092
1!
#1795325
0!
#1795921
1!
#1796154
0!
#1796750
1!
#1796987
0!
#1797588
1!
#1797823
0!
#1798423
1!
#1798660
0!
#1799264
1!
#1799913
0!
#1800069
1!
#1800744
0!
#1800926
1!
#1801160
0!
#1801755
1!
#1801988
0!
#1802582
1!
#1803235
0!
#1803418
1!
#1803655
0!
#1804259
1!
#1804493
0!
#1811277
1!
#1811522
0!
#1812105
1!
#1812757
0!
#1812946
1!
#1813205
0!
#1813779
1!
#1814026
0!
#1814594
1!
#1814860
0!
#1815440
1!
#1816095
0!
#1816277
1!
#1816512
0!
#1817112
1!
#1817346
0!
#1817946
1!
#1818597
0!
#1818779
1!
#1819014
0!
#1819616
1!
#1819849
0!
#1820445
1!
#1820679
0!
#1821276
1!
#1821511
0!
#1822114
1!
#1822349
0!
#1822948
1!
#1823183
0!
#1823781
1!
#1824014
0!
#1824612
1!
#1824847
0!
#1825449
1!
#1825684
0!
#1826288
1!
#1826937
0!
#1827119
1!
#1827767
0!
#1827949
1!
#1828181
0!
#1828784
1!
#1829018
0!
#1829618
1!
#1830269
0!
#1830451
1!
#1830683
0!
#1831279
1!
#1831513
0!
#1838271
1!
#1838523
0!
#1839090
1!
#1839738
0!
#1839927
1!
#1840172
0!
#1840754
1!
#1840988
0!
#1841593
1!
#1841828
0!
#1842425
1!
#1843075
0!
#1843258
1!
#1843494
0!
#1844092
1!
#1844326
0!
#1844924
1!
#1845575
0!
#1845758
1!
#1845994
0!
#1846592
1!
#1846826
0!
#1847427
1!
#1847663
0!
#1848265
1!
#1848500
0!
#1849094
1!
#1849328
0!
#1849927
1!
#1850161
0!
#1850759
1!
#1850993
0!
#1851596
1!
#1851830
0!
#1852427
1!
#1852661
0!
#1853257
1!
#1853907
0!
#1854090
1!
#1854745
0!
#1854929
1!
#1855164
0!
#1855762
1!
#1855996
0!
#1856599
1!
#1857249
0!
#1857432
1!
#1857664
0!
#1858262
1!
#1858497
0!
#1865241
1!
#1865521
0!
#1866080
1!
#1866725
0!
#1866915
1!
#1867164
0!
#1867754
1!
#1867988
0!
#1868588
1!
#1868822
0!
#1869421
1!
#1870072
0!
#1870256
1!
#1870489
0!
#1871085
1!
#1871319
0!
#1871922
1!
#1872571
0!
#1872754
1!
#1872979
0!
#1873586
1!
#1873820
0!
#1874416
1!
#1874650
0!
#1875254
1!
#1875489
0!
#1876085
1!
#1876320
0!
#1876918
1!
#1877151
0!
#1877751
1!
#1877984
0!
#1878587
1!
#1878823
0!
#1879421
1!
#1879654
0!
#1880252
1!
#1880903
0!
#1881086
1!
#1881737
0!
#1881920
1!
#1882154
0!
#1882753
1!
#1882985
0!
#1883588
1!
#1884241
0!
#1884423
1!
#1884655
0!
#1885255
1!
#1885489
0!
#1892234
1!
#1892511
0!
#1893083
1!
#1893743
0!
#1893928
1!
#1894142
0!
#1894747
1!
#1894981
0!
#1895585
1!
#1895821
0!
#1896425
1!
#1897075
0!
#1897257
1!
#1897490
0!
#1898086
1!
#1898321
0!
#1898919
1!
#1899569
0!
#1899752
1!
#1899987
0!
#1900587
1!
#1900821
0!
#1901417
1!
#1901650
0!
#1902253
1!
#1902463
0!
#1903082
1!
#1903317
0!
#1903913
1!
#1904146
0!
#1904748
1!
#1904979
0!
#1905585
1!
#1905816
0!
#1906420
1!
#1906655
0!
#1907256
1!
#1907905
0!
#1908088
1!
#1908713
0!
#1908920
1!
#1909152
0!
#1909750
1!
#1909963
0!
#1910560
1!
#1911239
0!
#1911422
1!
#1911654
0!
#1912252
1!
#1912485
0!
#1919269
1!
#1919496
0!
#1920097
1!
#1920762
0!
#1920942
1!
#1921166
0!
#1921780
1!
#1922014
0!
#1922615
1!
#1922847
0!
#1923438
1!
#1924089
0!
#1924272
1!
#1924507
0!
#1925112
1!
#1925346
0!
#1925944
1!
#1926596
0!
#1926779
1!
#1927010
0!
#1927608
1!
#1927842
0!
#1928444
1!
#1928677
0!
#1929274
1!
#1929508
0!
#1930111
1!
#1930345
0!
#1930946
1!
#1931181
0!
#1931773
1!
#1932008
0!
#1932611
1!
#1932845
0!
#1933440
1!
#1933674
0!
#1934242
1!
#1934930
0!
#1935112
1!
#1935758
0!
#1935942
1!
#1936177
0!
#1936777
1!
#1937012
0!
#1937608
1!
#1938261
0!
#1938444
1!
#1938680
0!
#1939279
1!
#1939512
0!
#1946254
1!
#1946504
0!
#1947065
1!
#1947734
0!
#1947926
1!
#1948151
0!
#1948744
1!
#1948988
0!
#1949581
1!
#1949816
0!
#1950415
1!
#1951066
0!
#1951250
1!
#1951486
0!
#1952083
1!
#1952317
0!
#1952921
1!
#1953571
0!
#1953753
1!
#1953986
0!
#1954584
1!
#1954819
0!
#1955420
1!
#1955655
0!
#1956256
1!
#1956490
0!
#1957085
1!
#1957319
0!
#1957916
1!
#1958151
0!
#1958750
1!
#1958984
0!
#1959586
1!
#1959821
0!
#1960418
1!
#1960653
0!
#1961253
1!
#1961906
0!
#1962089
1!
#1962738
0!
#1962920
1!
#1963155
0!
#1963757
1!
#1963990
0!
#1964589
1!
#1965239
0!
#1965423
1!
#1965631
0!
#1966252
1!
#1966486
0!
#1973242
1!
#1973490
0!
#1974069
1!
#1974740
0!
#1974928
1!
#1975155
0!
#1975755
1!
#1975982
0!
#1976586
1!
#1976829
0!
#1977427
1!
#1978068
0!
#1978249
1!
#1978470
0!
#1979077
1!
#1979307
0!
#1979923
1!
#1980573
0!
#1980755
1!
#1980980
0!
#1981583
1!
#1981818
0!
#1982420
1!
#1982654
0!
#1983256
1!
#1983491
0!
#1984090
1!
#1984324
0!
#1984918
1!
#1985152
0!
#1985750
1!
#1985983
0!
#1986579
1!
#1986814
0!
#1987418
1!
#1987653
0!
#1988253
1!
#1988904
0!
#1989086
1!
#1989737
0!
#1989919
1!
#1990153
0!
#1990749
1!
#1990982
0!
#1991585
1!
#1992237
0!
#1992420
1!
#1992654
0!
#1993258
1!
#1993491
0!
#2000258
1!
#2000509
0!
#2001068
1!
#2001741
0!
#2001934
1!
#2002156
0!
#2002771
1!
#2002982
0!
#2003586
1!
#2003820
0!
#2004421
1!
#2005073
0!
#2005256
1!
#2005492
0!
#2006093
1!
#2006327
0!
#2006924
1!
#2007572
0!
#2007754
1!
#2007989
0!
#2008591
1!
#2008825
0!
#2009423
1!
#2009656
0!
#2010252
1!
#2010488
0!
#2011093
1!
#2011300
0!
#2011922
1!
#2012155
0!
#2012755
1!
#2012989
0!
#2013586
1!
#2013819
0!
#2014420
1!
#2014653
0!
#2015249
1!
#2015901
0!
#2016086
1!
#2016741
0!
#2016923
1!
#2017156
0!
#2017756
1!
#2017990
0!
#2018587
1!
#2019237
0!
#2019420
1!
#2019654
0!
#2020253
1!
#2020488
0!
#2027277
1!
#2027508
0!
#2028113
1!
#2028757
0!
#2028938
1!
#2029192
0!
#2029789
1!
#2030023
0!
#2030619
1!
#2030853
0!
#2031450
1!
#2032101
0!
#2032283
1!
#2032516
0!
#2033113
1!
#2033346
0!
#2033945
1!
#2034595
0!
#2034779
1!
#2035014
0!
#2035614
1!
#2035848
0!
#2036450
1!
#2036684
0!
#2037282
1!
#2037514
0!
#2038109
1!
#2038344
0!
#2038947
1!
#2039182
0!
#2039780
1!
#2040014
0!
#2040618
1!
#2040852
0!
#2041445
1!
#2041680
0!
#2042285
1!
#2042937
0!
#2043118
1!
#2043766
0!
#2043949
1!
#2044184
0!
#2044787
1!
#2045021
0!
#2045617
1!
#2046268
0!
#2046451
1!
#2046685
0!
#2047284
1!
#2047518
0!
#2054245
1!
#2054522
0!
#2055081
1!
#2055721
0!
#2055910
1!
#2056156
0!
#2056746
1!
#2056989
0!
#2057585
1!
#2057818
0!
#2058418
1!
#2059070
0!
#2059253
1!
#2059487
0!
#2060089
1!
#2060324
0!
#2060922
1!
#2061572
0!
#2061756
1!
#2061992
0!
#2062589
1!
#2062821
0!
#2063419
1!
#2063655
0!
#2064255
1!
#2064488
0!
#2065086
1!
#2065320
0!
#2065922
1!
#2066156
0!
#2066760
1!
#2066994
0!
#2067588
1!
#2067822
0!
#2068419
1!
#2068653
0!
#2069252
1!
#2069902
0!
#2070086
1!
#2070738
0!
#2070922
1!
#2071156
0!
#2071756
1!
#2071966
0!
#2072586
1!
#2073239
0!
#2073422
1!
#2073656
0!
#2074254
1!
#2074488
0!
#2081247
1!
#2081500
0!
#2082075
1!
#2082740
0!
#2082929
1!
#2083171
0!
#2083751
1!
#2083986
0!
#2084585
1!
#2084818
0!
#2085423
1!
#2086073
0!
#2086256
1!
#2086490
0!
#2087089
1!
#2087323
0!
#2087920
1!
#2088572
0!
#2088755
1!
#2088989
0!
#2089586
1!
#2089820
0!
#2090424
1!
#2090659
0!
#2091254
1!
#2091487
0!
#2092086
1!
#2092320
0!
#2092917
1!
#2093151
0!
#2093751
1!
#2093986
0!
#2094586
1!
#2094820
0!
#2095423
1!
#2095657
0!
#2096254
1!
#2096904
0!
#2097086
1!
#2097736
0!
#2097919
1!
#2098153
0!
#2098755
1!
#2098991
0!
#2099585
1!
#2100237
0!
#2100419
1!
#2100654
0!
#2101251
1!
#2101486
0!
#2108246
1!
#2108499
0!
#2109077
1!
#2109741
0!
#2109928
1!
#2110142
0!
#2110749
1!
#2110985
0!
#2111588
1!
#2111823
0!
#2112421
1!
#2113070
0!
#2113252
1!
#2113488
0!
#2114091
1!
#2114325
0!
#2114923
1!
#2115573
0!
#2115756
1!
#2115989
0!
#2116587
1!
#2116822
0!
#2117419
1!
#2117653
0!
#2118259
1!
#2118492
0!
#2119089
1!
#2119323
0!
#2119924
1!
#2120132
0!
#2120752
1!
#2120990
0!
#2121582
1!
#2121816
0!
#2122414
1!
#2122648
0!
#2123248
1!
#2123898
0!
#2124082
1!
#2124734
0!
#2124918
1!
#2125154
0!
#2125757
1!
#2125990
0!
#2126586
1!
#2127240
0!
#2127422
1!
#2127657
0!
#2128255
1!
#2128490
0!
#2135283
1!
#2135510
0!
#2136116
1!
#2136758
0!
#2136938
1!
#2137191
0!
#2137782
1!
#2138016
0!
#2138618
1!
#2138846
0!
#2139451
1!
#2140100
0!
#2140283
1!
#2140517
0!
#2141113
1!
#2141346
0!
#2141948
1!
#2142599
0!
#2142783
1!
#2143018
0!
#2143617
1!
#2143852
0!
#2144449
1!
#2144683
0!
#2145285
1!
#2145518
0!
#2146120
1!
#2146355
0!
#2146949
1!
#2147183
0!
#2147782
1!
#2148015
0!
#2148617
1!
#2148852
0!
#2149450
1!
#2149683
0!
#2150283
1!
#2150932
0!
#2151113
1!
#2151767
0!
#2151951
1!
#2152185
0!
#2152785
1!
#2153018
0!
#2153615
1!
#2154267
0!
#2154449
1!
#2154684
0!
#2155284
1!
#2155518
0!
#2162237
1!
#2162515
0!
#2163076
1!
#2163745
0!
#2163930
1!
#2164145
0!
#2164758
1!
#2164992
0!
#2165593
1!
#2165826
0!
#2166425
1!
#2167076
0!
#2167257
1!
#2167491
0!
#2168090
1!
#2168325
0!
#2168922
1!
#2169573
0!
#2169757
1!
#2169991
0!
#2170586
1!
#2170820
0!
#2171424
1!
#2171659
0!
#2172258
1!
#2172492
0!
#2173090
1!
#2173324
0!
#2173921
1!
#2174155
0!
#2174752
1!
#2174986
0!
#2175589
1!
#2175823
0!
#2176422
1!
#2176657
0!
#2177261
1!
#2177910
0!
#2178092
1!
#2178745
0!
#2178924
1!
#2179156
0!
#2179751
1!
#2179985
0!
#2180593
1!
#2181219
0!
#2181427
1!
#2181657
0!
#2182256
1!
#2182490
0!
#2189260
1!
#2189511
0!
#2190101
1!
#2190743
0!
#2190903
1!
#2191172
0!
#2191754
1!
#2191988
0!
#2192592
1!
#2192825
0!
#2193422
1!
#2194072
0!
#2194253
1!
#2194487
0!
#2195091
1!
#2195326
0!
#2195926
1!
#2196575
0!
#2196757
1!
#2196990
0!
#2197586
1!
#2197821
0!
#2198420
1!
#2198655
0!
#2199258
1!
#2199493
0!
#2200092
1!
#2200324
0!
#2200920
1!
#2201153
0!
#2201754
1!
#2201988
0!
#2202591
1!
#2202825
0!
#2203419
1!
#2203653
0!
#2204257
1!
#2204909
0!
#2205092
1!
#2205740
0!
#2205923
1!
#2206157
0!
#2206755
1!
#2206989
0!
#2207589
1!
#2208240
0!
#2208422
1!
#2208656
0!
#2209251
1!
#2209485
0!
#2216280
1!
#2216535
0!
#2217098
1!
#2217758
0!
#2217923
1!
#2218178
0!
#2218775
1!
#2219017
0!
#2219601
1!
#2219835
0!
#2220433
1!
#2221088
0!
#2221272
1!
#2221507
0!
#2222108
1!
#2222342
0!
#2222935
1!
#2223589
0!
#2223772
1!
#2224007
0!
#2224608
1!
#2224843
0!
#2225443
1!
#2225678
0!
#2226272
1!
#2226505
0!
#2227108
1!
#2227343
0!
#2227939
1!
#2228174
0!
#2228768
1!
#2229001
0!
#2229601
1!
#2229837
0!
#2230443
1!
#2230678
0!
#2231275
1!
#2231923
0!
#2232106
1!
#2232755
0!
#2232936
1!
#2233170
0!
#2233775
1!
#2234009
0!
#2234607
1!
#2235256
0!
#2235438
1!
#2235671
0!
#2236270
1!
#2236504
0!
#2243273
1!
#2243524
0!
#2244097
1!
#2244739
0!
#2244928
1!
#2245176
0!
#2245757
1!
#2245993
0!
#2246595
1!
#2246827
0!
#2247426
1!
#2248077
0!
#2248261
1!
#2248496
0!
#2249100
1!
#2249334
0!
#2249929
1!
#2250579
0!
#2250761
1!
#2250995
0!
#2251599
1!
#2251834
0!
#2252429
1!
#2252662
0!
#2253256
1!
#2253491
0!
#2254095
1!
#2254330
0!
#2254926
1!
#2255159
0!
#2255764
1!
#2255999
0!
#2256594
1!
#2256828
0!
#2257432
1!
#2257667
0!
#2258264
1!
#2258913
0!
#2259096
1!
#2259742
0!
#2259928
1!
#2260162
0!
#2260761
1!
#2260995
0!
#2261597
1!
#2262246
0!
#2262430
1!
#2262664
0!
#2263266
1!
#2263501
0!
#2270261
1!
#2270514
0!
#2271079
1!
#2271746
0!
#2271932
1!
#2272147
0!
#2272753
1!
#2272982
0!
#2273586
1!
#2273822
0!
#2274421
1!
#2275074
0!
#2275256
1!
#2275491
0!
#2276091
1!
#2276325
0!
#2276923
1!
#2277576
0!
#2277759
1!
#2277991
0!
#2278591
1!
#2278825
0!
#2279421
1!
#2279654
0!
#2280258
1!
#2280492
0!
#2281089
1!
#2281322
0!
#2281924
1!
#2282159
0!
#2282758
1!
#2283003
0!
#2283588
1!
#2283821
0!
#2284419
1!
#2284654
0!
#2285258
1!
#2285908
0!
#2286091
1!
#2286741
0!
#2286923
1!
#2287157
0!
#2287758
1!
#2287966
0!
#2288590
1!
#2289242
0!
#2289424
1!
#2289657
0!
#2290256
1!
#2290491
0!
#2297260
1!
#2297510
0!
#2298099
1!
#2298741
0!
#2298907
1!
#2299156
0!
#2299746
1!
#2299981
0!
#2300584
1!
#2300819
0!
#2301420
1!
#2302074
0!
#2302257
1!
#2302491
0!
#2303090
1!
#2303324
0!
#2303922
1!
#2304575
0!
#2304757
1!
#2304991
0!
#2305593
1!
#2305826
0!
#2306423
1!
#2306657
0!
#2307261
1!
#2307495
0!
#2308090
1!
#2308324
0!
#2308919
1!
#2309154
0!
#2309756
1!
#2309990
0!
#2310586
1!
#2310819
0!
#2311418
1!
#2311653
0!
#2312255
1!
#2312907
0!
#2313090
1!
#2313740
0!
#2313922
1!
#2314156
0!
#2314754
1!
#2314988
0!
#2315592
1!
#2316242
0!
#2316424
1!
#2316657
0!
#2317255
1!
#2317488
0!
#2324278
1!
#2324551
0!
#2325097
1!
#2325758
0!
#2325940
1!
#2326161
0!
#2326792
1!
#2326997
0!
#2327613
1!
#2327847
0!
#2328446
1!
#2329097
0!
#2329279
1!
#2329512
0!
#2330108
1!
#2330342
0!
#2330945
1!
#2331599
0!
#2331781
1!
#2332014
0!
#2332615
1!
#2332848
0!
#2333447
1!
#2333681
0!
#2334279
1!
#2334512
0!
#2335108
1!
#2335344
0!
#2335948
1!
#2336183
0!
#2336783
1!
#2337017
0!
#2337615
1!
#2337848
0!
#2338447
1!
#2338681
0!
#2339280
1!
#2339932
0!
#2340113
1!
#2340763
0!
#2340944
1!
#2341177
0!
#2341774
1!
#2342008
0!
#2342614
1!
#2343264
0!
#2343447
1!
#2343681
0!
#2344279
1!
#2344511
0!
#2351259
1!
#2351511
0!
#2352084
1!
#2352747
0!
#2352907
1!
#2353148
0!
#2353751
1!
#2353985
0!
#2354589
1!
#2354824
0!
#2355424
1!
#2356074
0!
#2356257
1!
#2356490
0!
#2357089
1!
#2357323
0!
#2357923
1!
#2358574
0!
#2358757
1!
#2358990
0!
#2359589
1!
#2359822
0!
#2360423
1!
#2360657
0!
#2361262
1!
#2361496
0!
#2362093
1!
#2362326
0!
#2362922
1!
#2363156
0!
#2363762
1!
#2363996
0!
#2364590
1!
#2364824
0!
#2365430
1!
#2365662
0!
#2366258
1!
#2366909
0!
#2367091
1!
#2367740
0!
#2367922
1!
#2368157
0!
#2368760
1!
#2368994
0!
#2369590
1!
#2370241
0!
#2370423
1!
#2370658
0!
#2371261
1!
#2371493
0!
#2378261
1!
#2378516
0!
#2379091
1!
#2379730
0!
#2379915
1!
#2380153
0!
#2380756
1!
#2380992
0!
#2381588
1!
#2381823
0!
#2382427
1!
#2383078
0!
#2383260
1!
#2383467
0!
#2384090
1!
#2384325
0!
#2384928
1!
#2385579
0!
#2385761
1!
#2385994
0!
#2386593
1!
#2386827
0!
#2387425
1!
#2387659
0!
#2388258
1!
#2388493
0!
#2389089
1!
#2389324
0!
#2389928
1!
#2390161
0!
#2390759
1!
#2390991
0!
#2391589
1!
#2391824
0!
#2392421
1!
#2392655
0!
#2393256
1!
#2393907
0!
#2394090
1!
#2394741
0!
#2394924
1!
#2395158
0!
#2395756
1!
#2395988
0!
#2396592
1!
#2397243
0!
#2397425
1!
#2397657
0!
#2398255
1!
#2398489
0!
#2405250
1!
#2405497
0!
#2406082
1!
#2406746
0!
#2406914
1!
#2407169
0!
#2407764
1!
#2408003
0!
#2408584
1!
#2408820
0!
#2409423
1!
#2410073
0!
#2410256
1!
#2410490
0!
#2411088
1!
#2411322
0!
#2411922
1!
#2412574
0!
#2412756
1!
#2412992
0!
#2413588
1!
#2413823
0!
#2414425
1!
#2414658
0!
#2415262
1!
#2415495
0!
#2416093
1!
#2416327
0!
#2416926
1!
#2417160
0!
#2417758
1!
#2417992
0!
#2418589
1!
#2418824
0!
#2419423
1!
#2419656
0!
#2420258
1!
#2420908
0!
#2421092
1!
#2421745
0!
#2421927
1!
#2422160
0!
#2422756
1!
#2422990
0!
#2423588
1!
#2424242
0!
#2424425
1!
#2424658
0!
#2425256
1!
#2425491
0!
#2432275
1!
#2432549
0!
#2433103
1!
#2433777
0!
#2433969
1!
#2434197
0!
#2434797
1!
#2435015
0!
#2435626
1!
#2435865
0!
#2436445
1!
#2437100
0!
#2437282
1!
#2437517
0!
#2438122
1!
#2438356
0!
#2438952
1!
#2439603
0!
#2439787
1!
#2439995
0!
#2440619
1!
#2440853
0!
#2441451
1!
#2441685
0!
#2442283
1!
#2442517
0!
#2443117
1!
#2443353
0!
#2443956
1!
#2444192
0!
#2444790
1!
#2445023
0!
#2445620
1!
#2445853
0!
#2446450
1!
#2446683
0!
#2447287
1!
#2447939
0!
#2448122
1!
#2448771
0!
#2448954
1!
#2449187
0!
#2449786
1!
#2450019
0!
#2450620
1!
#2451272
0!
#2451455
1!
#2451689
0!
#2452287
1!
#2452522
0!
#2459260
1!
#2459480
0!
#2460087
1!
#2460750
0!
#2460935
1!
#2461152
0!
#2461754
1!
#2461984
0!
#2462593
1!
#2462824
0!
#2463412
1!
#2464083
0!
#2464265
1!
