doc/rtd157-274-1.vcd
$timescale 1us $end
$var wire 1 ! RX $end
$enddefinitions $end
#0
0!
#2257434
1!
#2257591
0!
#2257643
1!
#2257722
0!
#2257958
1!
#2258405
0!
#2258562
1!
#2258771
0!
#2258823
1!
#2258875
0!
#2259005
1!
#2259162
0!
#2259424
1!
#2259503
0!
#2259767
1!
#2259794
0!
#2259978
1!
#2260083
0!
#2260162
1!
#2260319
0!
#2260345
1!
#2260424
0!
#2260634
1!
#2260791
0!
#2261055
1!
#2261160
0!
#2261239
1!
#2261343
0!
#2261396
1!
#2261474
0!
#2261656
1!
#2261785
0!
#2261993
1!
#2262122
0!
#2262383
1!
#2262617
0!
#2262748
1!
#2262800
0!
#2262905
1!
#2262957
0!
#2263009
1!
#2263192
0!
#2263270
1!
#2263400
0!
#2263503
1!
#2263555
0!
#2263685
1!
#2263866
0!
#2264100
1!
#2264205
0!
#2264257
1!
#2264415
0!
#2264494
1!
#2264625
0!
#2264677
1!
#2264783
0!
#2264939
1!
#2265331
0!
#2265409
1!
#2265593
0!
#2265672
1!
#2265724
0!
#2265960
1!
#2266012
0!
#2266300
1!
#2266457
0!
#2266642
1!
#2266879
0!
#2266984
1!
#2267037
0!
#2267431
1!
#2267536
0!
#2267667
1!
#2267770
0!
#2267978
1!
#2268030
0!
#2268186
1!
#2268264
0!
#2268368
1!
#2268801
0!
#2269357
1!
#2269994
0!
#2270183
1!
#2270425
0!
#2271007
1!
#2271244
0!
#2271844
1!
#2272078
0!
#2272681
1!
#2273336
0!
#2273492
1!
#2273750
0!
#2274350
1!
#2274584
0!
#2275185
1!
#2275838
0!
#2276021
1!
#2276253
0!
#2276844
1!
#2277077
0!
#2277681
1!
#2277918
0!
#2278515
1!
#2278749
0!
#2279344
1!
#2279579
0!
#2280182
1!
#2280417
0!
#2281013
1!
#2281246
0!
#2281844
1!
#2282078
0!
#2282680
1!
#2282914
0!
#2283517
1!
#2283751
0!
#2284348
1!
#2284998
0!
#2285180
1!
#2285414
0!
#2286014
1!
#2286249
0!
#2286853
1!
#2287504
0!
#2287686
1!
#2287918
0!
#2288512
1!
#2288745
0!
#2296531
1!
#2296779
0!
#2297365
1!
#2298028
0!
#2298192
1!
#2298450
0!
#2299039
1!
#2299285
0!
#2299875
1!
#2300118
0!
#2300696
1!
#2301374
0!
#2301531
1!
#2301769
0!
#2302372
1!
#2302605
0!
#2303201
1!
#2303851
0!
#2304033
1!
#2304268
0!
#2304871
1!
#2305104
0!
#2305702
1!
#2305937
0!
#2306533
1!
#2306767
0!
#2307368
1!
#2307605
0!
#2308204
1!
#2308436
0!
#2309033
1!
#2309266
0!
#2309867
1!
#2310102
0!
#2310699
1!
#2310935
0!
#2311537
1!
#2311771
0!
#2312371
1!
#2313021
0!
#2313202
1!
#2313435
0!
#2314031
1!
#2314265
0!
#2314864
1!
#2315517
0!
#2315701
1!
#2315935
0!
#2316530
1!
#2316764
0!
#2324540
1!
#2324821
0!
#2325361
1!
#2326018
0!
#2326200
1!
#2326435
0!
#2327037
1!
#2327270
0!
#2327868
1!
#2328103
0!
#2328703
1!
#2329355
0!
#2329536
1!
#2329769
0!
#2330372
1!
#2330606
0!
#2331201
1!
#2331853
0!
#2332036
1!
#2332269
0!
#2332865
1!
#2333098
0!
#2333700
1!
#2333935
0!
#2334541
1!
#2334775
0!
#2335370
1!
#2335603
0!
#2336202
1!
#2336436
0!
#2337035
1!
#2337270
0!
#2337868
1!
#2338101
0!
#2338696
1!
#2338931
0!
#2339527
1!
#2339763
0!
#2340369
1!
#2341019
0!
#2341202
1!
#2341437
0!
#2342032
1!
#2342266
0!
#2342866
1!
#2343518
0!
#2343702
1!
#2343937
0!
#2344535
1!
#2344768
0!
#2352505
1!
#2352757
0!
#2353350
1!
#2354011
0!
#2354170
1!
#2354407
0!
#2355009
1!
#2355242
0!
#2355848
1!
#2356078
0!
#2356678
1!
#2357328
0!
#2357512
1!
#2357746
0!
#2358348
1!
#2358577
0!
#2359182
1!
#2359832
0!
#2360014
1!
#2360246
0!
#2360842
1!
#2361075
0!
#2361679
1!
#2361914
0!
#2362510
1!
#2362743
0!
#2363339
1!
#2363575
0!
#2364178
1!
#2364412
0!
#2365014
1!
#2365248
0!
#2365849
1!
#2366082
0!
#2366677
1!
#2366911
0!
#2367508
1!
#2367741
0!
#2368348
1!
#2368995
0!
#2369177
1!
#2369410
0!
#2370010
1!
#2370245
0!
#2370841
1!
#2371491
0!
#2371675
1!
#2371909
0!
#2372510
1!
#2372745
0!
#2380511
1!
#2380791
0!
#2381333
1!
#2381991
0!
#2382175
1!
#2382409
0!
#2383008
1!
#2383244
0!
#2383844
1!
#2384083
0!
#2384683
1!
#2385336
0!
#2385518
1!
#2385724
0!
#2386344
1!
#2386578
0!
#2387178
1!
#2387830
0!
#2388012
1!
#2388246
0!
#2388844
1!
#2389077
0!
#2389674
1!
#2389908
0!
#2390511
1!
#2390745
0!
#2391340
1!
#2391573
0!
#2392169
1!
#2392403
0!
#2393008
1!
#2393244
0!
#2393845
1!
#2394079
0!
#2394681
1!
#2394914
0!
#2395513
1!
#2395748
0!
#2396347
1!
#2396995
0!
#2397178
1!
#2397412
0!
#2398013
1!
#2398247
0!
#2398841
1!
#2399490
0!
#2399674
1!
#2399910
0!
#2400510
1!
#2400744
0!
#2408507
1!
#2408758
0!
#2409328
1!
#2409986
0!
#2410170
1!
#2410408
0!
#2411014
1!
#2411247
0!
#2411847
1!
#2412079
0!
#2412680
1!
#2413331
0!
#2413514
1!
#2413746
0!
#2414340
1!
#2414573
0!
#2415178
1!
#2415830
0!
#2416011
1!
#2416244
0!
#2416838
1!
#2417072
0!
#2417645
1!
#2417912
0!
#2418509
1!
#2418742
0!
#2419345
1!
#2419578
0!
#2420180
1!
#2420413
0!
#2421007
1!
#2421241
0!
#2421845
1!
#2422080
0!
#2422682
1!
#2422915
0!
#2423514
1!
#2423747
0!
#2424341
1!
#2424991
0!
#2425175
1!
#2425410
0!
#2426014
1!
#2426248
0!
#2426847
1!
#2427499
0!
#2427680
1!
#2427913
0!
#2428508
1!
#2428742
0!
#2436530
1!
#2436785
0!
#2437347
1!
#2438011
0!
#2438198
1!
#2438443
0!
#2439028
1!
#2439264
0!
#2439863
1!
#2440097
0!
#2440700
1!
#2441350
0!
#2441506
1!
#2441765
0!
#2442360
1!
#2442594
0!
#2443200
1!
#2443848
0!
#2444029
1!
#2444262
0!
#2444865
1!
#2445099
0!
#2445696
1!
#2445928
0!
#2446530
1!
#2446763
0!
#2447361
1!
#2447596
0!
#2448197
1!
#2448432
0!
#2449030
1!
#2449263
0!
#2449861
1!
#2450094
0!
#2450695
1!
#2450928
0!
#2451532
1!
#2451766
0!
#2452359
1!
#2453009
0!
#2453191
1!
#2453425
0!
#2454030
1!
#2454267
0!
#2454865
1!
#2455512
0!
#2455694
1!
#2455929
0!
#2456529
1!
#2456762
0!
#2464518
1!
#2464766
0!
#2465351
1!
#2465982
0!
#2466194
1!
#2466407
0!
#2467008
1!
#2467242
0!
#2467845
1!
#2468078
0!
#2468673
1!
#2469324
0!
#2469508
1!
#2469746
0!
#2470347
1!
#2470578
0!
#2471178
1!
#2471832
0!
#2472015
1!
#2472247
0!
#2472842
1!
#2473076
0!
#2473677
1!
#2473911
0!
#2474513
1!
#2474747
0!
#2475341
1!
#2475576
0!
#2476180
1!
#2476414
0!
#2477017
1!
#2477251
0!
#2477848
1!
#2478083
0!
#2478679
1!
#2478913
0!
#2479509
1!
#2479744
0!
#2480345
1!
#2480997
0!
#2481178
1!
#2481411
0!
#2482010
1!
#2482245
0!
#2482845
1!
#2483496
0!
#2483679
1!
#2483911
0!
#2484507
1!
#2484741
0!
#2492507
1!
#2492787
0!
#2493334
1!
#2494002
0!
#2494189
1!
#2494403
0!
#2495009
1!
#2495245
0!
#2495849
1!
#2496083
0!
#2496681
1!
#2497330
0!
#2497514
1!
#2497750
0!
#2498347
1!
#2498580
0!
#2499186
1!
#2499836
0!
#2500017
1!
#2500250
0!
#2500851
1!
#2501084
0!
#2501681
1!
#2501915
0!
#2502520
1!
#2502753
0!
#2503348
1!
#2503581
0!
#2504178
1!
#2504409
0!
#2505012
1!
#2505248
0!
#2505850
1!
#2506083
0!
#2506678
1!
#2506912
0!
#2507519
1!
#2507755
0!
#2508358
1!
#2509008
0!
#2509190
1!
#2509396
0!
#2510015
1!
#2510248
0!
#2510843
1!
#2511493
0!
#2511675
1!
#2511912
0!
#2512514
1!
#2512749
0!
#2520517
1!
#2520795
0!
#2521360
1!
#2522022
0!
#2522181
1!
#2522420
0!
#2523026
1!
#2523260
0!
#2523856
1!
#2524090
0!
#2524687
1!
#2525341
0!
#2525524
1!
#2525758
0!
#2526360
1!
#2526593
0!
#2527191
1!
#2527843
0!
#2528026
1!
#2528261
0!
#2528859
1!
#2529092
0!
#2529691
1!
#2529925
0!
#2530522
1!
#2530755
0!
#2531356
1!
#2531600
0!
#2532196
1!
#2532430
0!
#2533025
1!
#2533259
0!
#2533859
1!
#2534092
0!
#2534690
1!
#2534924
0!
#2535522
1!
#2535755
0!
#2536360
1!
#2537013
0!
#2537195
1!
#2537428
0!
#2538029
1!
#2538263
0!
#2538858
1!
#2539510
0!
#2539692
1!
#2539927
0!
#2540524
1!
#2540757
0!
#2548536
1!
#2548792
0!
#2549358
1!
#2549997
0!
#2550181
1!
#2550420
0!
#2551026
1!
#2551259
0!
#2551864
1!
#2552100
0!
#2552696
1!
#2553348
0!
#2553531
1!
#2553765
0!
#2554368
1!
#2554603
0!
#2555199
1!
#2555847
0!
#2556030
1!
#2556265
0!
#2556864
1!
#2557097
0!
#2557694
1!
#2557928
0!
#2558532
1!
#2558765
0!
#2559369
1!
#2559578
0!
#2560199
1!
#2560432
0!
#2561028
1!
#2561262
0!
#2561864
1!
#2562097
0!
#2562695
1!
#2562928
0!
#2563529
1!
#2563762
0!
#2564358
1!
#2565009
0!
#2565192
1!
#2565427
0!
#2566032
1!
#2566239
0!
#2566864
1!
#2567515
0!
#2567697
1!
#2567928
0!
#2568530
1!
#2568764
0!
#2576488
1!
#2576760
0!
#2577326
1!
#2577988
0!
#2578171
1!
#2578408
0!
#2579010
1!
#2579244
0!
#2579844
1!
#2580079
0!
#2580678
1!
#2581329
0!
#2581512
1!
#2581745
0!
#2582348
1!
#2582582
0!
#2583181
1!
#2583831
0!
#2584014
1!
#2584248
0!
#2584847
1!
#2585081
0!
#2585678
1!
#2585912
0!
#2586510
1!
#2586745
0!
#2587342
1!
#2587576
0!
#2588177
1!
#2588412
0!
#2589014
1!
#2589249
0!
#2589845
1!
#2590080
0!
#2590685
1!
#2590919
0!
#2591517
1!
#2591751
0!
#2592349
1!
#2593000
0!
#2593181
1!
#2593414
0!
#2594011
1!
#2594245
0!
#2594842
1!
#2595492
0!
#2595676
1!
#2595912
0!
#2596511
1!
#2596744
0!
#2604509
1!
#2604787
0!
#2605347
1!
#2606007
0!
#2606166
1!
#2606406
0!
#2607011
1!
#2607245
0!
#2607845
1!
#2608081
0!
#2608677
1!
#2609330
0!
#2609513
1!
#2609747
0!
#2610343
1!
#2610578
0!
#2611181
1!
#2611834
0!
#2612016
1!
#2612248
0!
#2612844
1!
#2613078
0!
#2613680
1!
#2613914
0!
#2614509
1!
#2614745
0!
#2615349
1!
#2615585
0!
#2616181
1!
#2616414
0!
#2617012
1!
#2617247
0!
#2617848
1!
#2618081
0!
#2618680
1!
#2618916
0!
#2619516
1!
#2619748
0!
#2620352
1!
#2621002
0!
#2621185
1!
#2621418
0!
#2622018
1!
#2622252
0!
#2622846
1!
#2623497
0!
#2623680
1!
#2623914
0!
#2624517
1!
#2624753
0!
#2632552
1!
#2632799
0!
#2633384
1!
#2634046
0!
#2634210
1!
#2634468
0!
#2635061
1!
#2635309
0!
#2635899
1!
#2636139
0!
#2636724
1!
#2637377
0!
#2637560
1!
#2637795
0!
#2638397
1!
#2638631
0!
#2639235
1!
#2639884
0!
#2640066
1!
#2640298
0!
#2640892
1!
#2641125
0!
#2641725
1!
#2641959
0!
#2642561
1!
#2642795
0!
#2643398
1!
#2643633
0!
#2644231
1!
#2644465
0!
#2645062
1!
#2645296
0!
#2645893
1!
#2646129
0!
#2646725
1!
#2646958
0!
#2647558
1!
#2647792
0!
#2648393
1!
#2649047
0!
#2649230
1!
#2649466
0!
#2650062
1!
#2650295
0!
#2650895
1!
#2651545
0!
#2651728
1!
#2651962
0!
#2652565
1!
#2652798
0!
#2660497
1!
#2660755
0!
#2661348
1!
#2662003
0!
#2662186
1!
#2662420
0!
#2663018
1!
#2663252
0!
#2663855
1!
#2664089
0!
#2664687
1!
#2665338
0!
#2665519
1!
#2665752
0!
#2666353
1!
#2666587
0!
#2667184
1!
#2667836
0!
#2668017
1!
#2668250
0!
#2668847
1!
#2669082
0!
#2669686
1!
#2669922
0!
#2670524
1!
#2670733
0!
#2671352
1!
#2671586
0!
#2672185
1!
#2672419
0!
#2673018
1!
#2673252
0!
#2673856
1!
#2674091
0!
#2674692
1!
#2674900
0!
#2675519
1!
#2675751
0!
#2676346
1!
#2676997
0!
#2677180
1!
#2677417
0!
#2678024
1!
#2678233
0!
#2678855
1!
#2679502
0!
#2679685
1!
#2679918
0!
#2680514
1!
#2680749
0!
#2688513
1!
#2688762
0!
#2689330
1!
#2689989
0!
#2690174
1!
#2690412
0!
#2691014
1!
#2691250
0!
#2691846
1!
#2692079
0!
#2692794
1!
#2693332
0!
#2693514
1!
#2693747
0!
#2694345
1!
#2694578
0!
#2695176
1!
#2695827
0!
#2696010
1!
#2696247
0!
#2696851
1!
#2697084
0!
#2697683
1!
#2697916
0!
#2698514
1!
#2698747
0!
#2699345
1!
#2699580
0!
#2700184
1!
#2700417
0!
#2701011
1!
#2701244
0!
#2701850
1!
#2702085
0!
#2702682
1!
#2702914
0!
#2703517
1!
#2703752
0!
#2704350
1!
#2704997
0!
#2705179
1!
#2705413
0!
#2706013
1!
#2706246
0!
#2706848
1!
#2707498
0!
#2707681
1!
#2707914
0!
#2708516
1!
#2708751
0!
#2716509
1!
#2716779
0!
#2717336
1!
#2717990
0!
#2718174
1!
#2718412
0!
#2719017
1!
#2719251
0!
#2719850
1!
#2720084
0!
#2720684
1!
#2721334
0!
#2721516
1!
#2721749
0!
#2722343
1!
#2722577
0!
#2723155
1!
#2723832
0!
#2724015
1!
#2724249
0!
#2724853
1!
#2725086
0!
#2725684
1!
#2725918
0!
#2726514
1!
#2726748
0!
#2727345
1!
#2727578
0!
#2728182
1!
#2728417
0!
#2729020
1!
#2729229
0!
#2729853
1!
#2730089
0!
#2730684
1!
#2730916
0!
#2731511
1!
#2731744
0!
#2732349
1!
#2732999
0!
#2733181
1!
#2733414
0!
#2734018
1!
#2734253
0!
#2734851
1!
#2735500
0!
#2735682
1!
#2735916
0!
#2736513
1!
#2736748
0!
#2744550
1!
#2744800
0!
#2745356
1!
#2746020
0!
#2746214
1!
#2746438
0!
#2747028
1!
#2747265
0!
#2747873
1!
#2748108
0!
#2748708
1!
#2749361
0!
#2749544
1!
#2749776
0!
#2750371
1!
#2750605
0!
#2751209
1!
#2751861
0!
#2752043
1!
#2752276
0!
#2752874
1!
#2753107
0!
#2753705
1!
#2753938
0!
#2754542
1!
#2754776
0!
#2755373
1!
#2755606
0!
#2756209
1!
#2756443
0!
#2757041
1!
#2757274
0!
#2757873
1!
#2758108
0!
#2758703
1!
#2758938
0!
#2759543
1!
#2759776
0!
#2760373
1!
#2761025
0!
#2761208
1!
#2761443
0!
#2762045
1!
#2762278
0!
#2762871
1!
#2763523
0!
#2763705
1!
#2763940
0!
#2764543
1!
#2764777
0!
#2772496
1!
#2772788
0!
#2773342
1!
#2773995
0!
#2774177
1!
#2774412
0!
#2775013
1!
#2775250
0!
#2775850
1!
#2776084
0!
#2776679
1!
#2777331
0!
#2777515
1!
#2777750
0!
#2778353
1!
#2778587
0!
#2779182
1!
#2779832
0!
#2780014
1!
#2780246
0!
#2780846
1!
#2781080
0!
#2781682
1!
#2781916
0!
#2782512
1!
#2782746
0!
#2783351
1!
#2783584
0!
#2784180
1!
#2784412
0!
#2785007
1!
#2785242
0!
#2785847
1!
#2786083
0!
#2786678
1!
#2786912
0!
#2787514
1!
#2787748
0!
#2788349
1!
#2789001
0!
#2789183
1!
#2789416
0!
#2790013
1!
#2790246
0!
#2790842
1!
#2791494
0!
#2791677
1!
#2791913
0!
#2792516
1!
#2792753
0!
#2800507
1!
#2800784
0!
#2801344
1!
#2802008
0!
#2802172
1!
#2802422
0!
#2803010
1!
#2803243
0!
#2803846
1!
#2804080
0!
#2804680
1!
#2805332
0!
#2805514
1!
#2805749
0!
#2806347
1!
#2806581
0!
#2807179
1!
#2807830
0!
#2808013
1!
#2808249
0!
#2808855
1!
#2809089
0!
#2809687
1!
#2809921
0!
#2810516
1!
#2810750
0!
#2811349
1!
#2811583
0!
#2812180
1!
#2812413
0!
#2813015
1!
#2813249
0!
#2813853
1!
#2814087
0!
#2814684
1!
#2814917
0!
#2815516
1!
#2815750
0!
#2816353
1!
#2817003
0!
#2817185
1!
#2817417
0!
#2818019
1!
#2818252
0!
#2818849
1!
#2819498
0!
#2819680
1!
#2819913
0!
#2820507
1!
#2820742
0!
#2828502
1!
#2828775
0!
#2829344
1!
#2830000
0!
#2830184
1!
#2830420
0!
#2831022
1!
#2831255
0!
#2831850
1!
#2832085
0!
#2832685
1!
#2833333
0!
#2833517
1!
#2833752
0!
#2834351
1!
#2834585
0!
#2835187
1!
#2835838
0!
#2836021
1!
#2836255
0!
#2836855
1!
#2837089
0!
#2837691
1!
#2837925
0!
#2838522
1!
#2838756
0!
#2839350
1!
#2839583
0!
#2840187
1!
#2840424
0!
#2841022
1!
#2841255
0!
#2841858
1!
#2842092
0!
#2842689
1!
#2842921
0!
#2843518
1!
#2843752
0!
#2844351
1!
#2845002
0!
#2845186
1!
#2845423
0!
#2846028
1!
#2846237
0!
#2846857
1!
#2847509
0!
#2847691
1!
#2847925
0!
#2848519
1!
#2848752
0!
#2856535
1!
#2856782
0!
#2857345
1!
#2858006
0!
#2858190
1!
#2858427
0!
#2859028
1!
#2859261
0!
#2859859
1!
#2860093
0!
#2860692
1!
#2861344
0!
#2861528
1!
#2861762
0!
#2862362
1!
#2862598
0!
#2863197
1!
#2863848
0!
#2864029
1!
#2864263
0!
#2864860
1!
#2865098
0!
#2865691
1!
#2865925
0!
#2866530
1!
#2866763
0!
#2867359
1!
#2867592
0!
#2868195
1!
#2868429
0!
#2869028
1!
#2869261
0!
#2869864
1!
#2870098
0!
#2870692
1!
#2870925
0!
#2871525
1!
#2871760
0!
#2872365
1!
#2873017
0!
#2873198
1!
#2873430
0!
#2874027
1!
#2874261
0!
#2874862
1!
#2875513
0!
#2875696
1!
#2875930
0!
#2876529
1!
#2876763
0!
#2884519
1!
#2884759
0!
#2885347
1!
#2885999
0!
#2886181
1!
#2886414
0!
#2887016
1!
#2887250
0!
#2887847
1!
#2888082
0!
#2888688
1!
#2889314
0!
#2889522
1!
#2889754
0!
#2890351
1!
#2890585
0!
#2891183
1!
#2891833
0!
#2892016
1!
#2892250
0!
#2892847
1!
#2893081
0!
#2893678
1!
#2893912
0!
#2894514
1!
#2894748
0!
#2895345
1!
#2895580
0!
#2896182
1!
#2896416
0!
#2897012
1!
#2897247
0!
#2897852
1!
#2898061
0!
#2898683
1!
#2898917
0!
#2899514
1!
#2899750
0!
#2900350
1!
#2901002
0!
#2901184
1!
#2901416
0!
#2902012
1!
#2902247
0!
#2902845
1!
#2903501
0!
#2903683
1!
#2903892
0!
#2904518
1!
#2904752
0!
#2912504
1!
#2912757
0!
#2913355
1!
#2913987
0!
#2914172
1!
#2914411
0!
#2915016
1!
#2915250
0!
#2915849
1!
#2916082
0!
#2916679
1!
#2917328
0!
#2917512
1!
#2917749
0!
#2918349
1!
#2918583
0!
#2919180
1!
#2919828
0!
#2920012
1!
#2920248
0!
#2920849
1!
#2921083
0!
#2921685
1!
#2921918
0!
#2922516
1!
#2922751
0!
#2923348
1!
#2923581
0!
#2924185
1!
#2924420
0!
#2925015
1!
#2925247
0!
#2925844
1!
#2926078
0!
#2926680
1!
#2926915
0!
#2927517
1!
#2927752
0!
#2928345
1!
#2928996
0!
#2929179
1!
#2929414
0!
#2930016
1!
#2930251
0!
#2930850
1!
#2931502
0!
#2931683
1!
#2931917
0!
#2932522
1!
#2932756
0!
#2940541
1!
#2940792
0!
#2941354
1!
#2942010
0!
#2942193
1!
#2942430
0!
#2943037
1!
#2943271
0!
#2943870
1!
#2944103
0!
#2944703
1!
#2945353
0!
#2945535
1!
#2945768
0!
#2946363
1!
#2946598
0!
#2947201
1!
#2947854
0!
#2948037
1!
#2948269
0!
#2948868
1!
#2949101
0!
#2949699
1!
#2949934
0!
#2950538
1!
#2950774
0!
#2951373
1!
#2951606
0!
#2952205
1!
#2952438
0!
#2953035
1!
#2953269
0!
#2953867
1!
#2954101
0!
#2954698
1!
#2954932
0!
#2955531
1!
#2955766
0!
#2956369
1!
#2957021
0!
#2957203
1!
#2957436
0!
#2958035
1!
#2958271
0!
#2958866
1!
#2959515
0!
#2959698
1!
#2959933
0!
#2960536
1!
#2960769
0!
#2968519
1!
#2968760
0!
#2969343
1!
#2969995
0!
#2970178
1!
#2970414
0!
#2971014
1!
#2971248
0!
#2971851
1!
#2972086
0!
#2972687
1!
#2973338
0!
#2973519
1!
#2973750
0!
#2974351
1!
#2974586
0!
#2975182
1!
#2975834
0!
#2976015
1!
#2976248
0!
#2976844
1!
#2977079
0!
#2977677
1!
#2977912
0!
#2978517
1!
#2978751
0!
#2979349
1!
#2979582
0!
#2980180
1!
#2980415
0!
#2981019
1!
#2981252
0!
#2981848
1!
#2982078
0!
#2982683
1!
#2982918
0!
#2983521
1!
#2983755
0!
#2984350
1!
#2985014
0!
#2985181
1!
#2985415
0!
#2986015
1!
#2986250
0!
#2986853
1!
#2987503
0!
#2987685
1!
#2987918
0!
#2988514
1!
#2988747
0!
#2996521
1!
#2996771
0!
#2997338
1!
#2997994
0!
#2998178
1!
#2998414
0!
#2999015
1!
#2999250
0!
#2999854
1!
#3000088
0!
#3000690
1!
#3001341
0!
#3001523
1!
#3001756
0!
#3002356
1!
#3002590
0!
#3003190
1!
#3003841
0!
#3004024
1!
#3004256
0!
#3004850
1!
#3005083
0!
#3005678
1!
#3005914
0!
#3006511
1!
#3006746
0!
#3007355
1!
#3007566
0!
#3008194
1!
#3008428
0!
#3009021
1!
#3009253
0!
#3009849
1!
#3010084
0!
#3010683
1!
#3010918
0!
#3011517
1!
#3011751
0!
#3012355
1!
#3013006
0!
#3013188
1!
#3013421
0!
#3014018
1!
#3014251
0!
#3014850
1!
#3015501
0!
#3015683
1!
#3015916
0!
#3016514
1!
#3016748
0!
#3024521
1!
#3024769
0!
#3025360
1!
#3025992
0!
#3026176
1!
#3026413
0!
#3027012
1!
#3027246
0!
#3027848
1!
#3028082
0!
#3028682
1!
#3029331
0!
#3029514
1!
#3029751
0!
#3030350
1!
#3030584
0!
#3031180
1!
#3031833
0!
#3032016
1!
#3032250
0!
#3032850
1!
#3033083
0!
#3033684
1!
#3033918
0!
#3034519
1!
#3034752
0!
#3035348
1!
#3035582
0!
#3036179
1!
#3036412
0!
#3037014
1!
#3037250
0!
#3037854
1!
#3038088
0!
#3038661
1!
#3038919
0!
#3039515
1!
#3039748
0!
#3040351
1!
#3041000
0!
#3041183
1!
#3041417
0!
#3042016
1!
#3042250
0!
#3042846
1!
#3043498
0!
#3043681
1!
#3043917
0!
#3044519
1!
#3044753
0!
#3052527
1!
#3052805
0!
#3053367
1!
#3054033
0!
#3054193
1!
#3054432
0!
#3055036
1!
#3055273
0!
#3055873
1!
#3056107
0!
#3056708
1!
#3057361
0!
#3057543
1!
#3057776
0!
#3058370
1!
#3058603
0!
#3059206
1!
#3059858
0!
#3060041
1!
#3060276
0!
#3060871
1!
#3061104
0!
#3061708
1!
#3061944
0!
#3062544
1!
#3062778
0!
#3063383
1!
#3063591
0!
#3064212
1!
#3064445
0!
#3065041
1!
#3065275
0!
#3065870
1!
#3066103
0!
#3066707
1!
#3066941
0!
#3067543
1!
#3067779
0!
#3068371
1!
#3069021
0!
#3069204
1!
#3069439
0!
#3070044
1!
#3070276
0!
#3070877
1!
#3071527
0!
#3071709
1!
#3071943
0!
#3072539
1!
#3072775
0!
#3080526
1!
#3080772
0!
#3081338
1!
#3081999
0!
#3082182
1!
#3082417
0!
#3083018
1!
#3083252
0!
#3083851
1!
#3084085
0!
#3084680
1!
#3085331
0!
#3085514
1!
#3085750
0!
#3086348
1!
#3086581
0!
#3087185
1!
#3087836
0!
#3088018
1!
#3088251
0!
#3088844
1!
#3089081
0!
#3089685
1!
#3089919
0!
#3090520
1!
#3090753
0!
#3091350
1!
#3091583
0!
#3092179
1!
#3092412
0!
#3093017
1!
#3093252
0!
#3093848
1!
#3094080
0!
#3094686
1!
#3094920
0!
#3095516
1!
#3095749
0!
#3096344
1!
#3096997
0!
#3097181
1!
#3097416
0!
#3098016
1!
#3098250
0!
#3098848
1!
#3099499
0!
#3099682
1!
#3099917
0!
#3100514
1!
#3100748
0!
#3108514
1!
#3108793
0!
#3109337
1!
#3109998
0!
#3110181
1!
#3110416
0!
#3111019
1!
#3111255
0!
#3111857
1!
#3112090
0!
#3112692
1!
#3113344
0!
#3113527
1!
#3113760
0!
#3114357
1!
#3114589
0!
#3115188
1!
#3115839
0!
#3116021
1!
#3116255
0!
#3116857
1!
#3117092
0!
#3117693
1!
#3117927
0!
#3118520
1!
#3118753
0!
#3119350
1!
#3119585
0!
#3120188
1!
#3120423
0!
#3121029
1!
#3121262
0!
#3121855
1!
#3122087
0!
#3122690
1!
#3122899
0!
#3123522
1!
#3123756
0!
#3124361
1!
#3124985
0!
#3125192
1!
#3125424
0!
#3126020
1!
#3126255
0!
#3126858
1!
#3127509
0!
#3127691
1!
#3127925
0!
#3128520
1!
#3128755
0!
#3136530
1!
#3136780
0!
#3137344
1!
#3138012
0!
#3138201
1!
#3138446
0!
#3139031
1!
#3139266
0!
#3139867
1!
#3140101
0!
#3140701
1!
#3141354
0!
#3141536
1!
#3141770
0!
#3142367
1!
#3142601
0!
#3143204
1!
#3143854
0!
#3144036
1!
#3144270
0!
#3144865
1!
#3145097
0!
#3145699
1!
#3145934
0!
#3146531
1!
#3146766
0!
#3147364
1!
#3147598
0!
#3148196
1!
#3148430
0!
#3149031
1!
#3149264
0!
#3149866
1!
#3150101
0!
#3150704
1!
#3150939
0!
#3151534
1!
#3151768
0!
#3152365
1!
#3153017
0!
#3153200
1!
#3153433
0!
#3154032
1!
#3154265
0!
#3154869
1!
#3155521
0!
#3155704
1!
#3155937
0!
#3156533
1!
#3156766
0!
#4574912
1!
#4574938
0!
#4575519
1!
#4575545
0!
#4575623
1!
#4575702
0!
#4575859
1!
#4575939
0!
#4576912
1!
#4576990
0!
#4578387
1!
#4578440
0!
#4579331
1!
#4579435
0!
#4580959
1!
#4580985
0!
#4584082
1!
#4584161
0!
#4586307
1!
#4586412
0!
#4586544
1!
#4586597
0!
#4586730
1!